{
    "manager": {
	"defroute_priority": 8,
	"impotent": true,
	"min_change_interval": 60,
	"min_interface_stable_up_time": 60
    },
    "log" : {
	"stderr": true,
	"level": "debug"
    },
    "eventlog": {
	"influxdb": {
	    "tags": {
		"cluster": "test1.powderwireless.net",
		"node": "control"
	    },
	    "outputs": {
		"localhost": {
		    "enabled": true,
		    "hostname": "localhost",
		    "port": 8086,
		    "ssl": false,
		    "username": "",
		    "password": "",
		    "database": "telegraf",
		    "measurement_prefix": "lm_"
		}
	    }
	}
    },
    "interfaces": {
        "wwan0": {
            "enabled": true,
            "l2manager": "mbim-networkd",
            "l3manager": "systemd-networkd",
            "priority": 10,
            "type": "lte"
        },
        "wlan0": {
            "enabled": true,
            "l2manager": "wpa_supplicant",
            "l3manager": "systemd-networkd",
            "priority": 100,
            "type": "wifi"
        }
    },
    "stats": [
	{
	    "module":"TelegrafPingStat",
	    "name":"TelegrafPingStat",
	    "hostname":"localhost",
	    "database":"telegraf",
	    "measurement":"ping",
	    "interfaces":[ "wwan0","wlan0" ],
	    "interval": 10
	}
    ]
}
